fifosc/waves.vcd
$date
	Sat May  6 21:50:38 2023
$end

$version
	Synopsys VCS version R-2020.12
$end

$timescale
	1s
$end

$comment Csum: 1 d69de74d2cde292f $end


$scope module fifo_tb $end
$var reg 1 ! clk $end
$var reg 1 " rst_n $end
$var reg 1 # w_en $end
$var reg 1 $ r_en $end
$var reg 17 % data_in [16:0] $end
$var reg 1 & SI $end
$var reg 1 ' TM $end
$var wire 17 ( data_out [16:0] $end
$var wire 1 ) full $end
$var wire 1 * empty $end
$var wire 1 + SO $end
$var reg 17 , captured_data_out [16:0] $end

$scope begin unnamed$$_0 $end
$upscope $end


$scope module dut $end
$var wire 1 ! clk $end
$var wire 1 " rst_n $end
$var wire 1 # w_en $end
$var wire 1 $ r_en $end
$var wire 17 % data_in [16:0] $end
$var reg 17 ( data_out [16:0] $end
$var wire 1 ) full $end
$var wire 1 * empty $end
$var wire 1 ' TM $end
$var wire 1 & SI $end
$var reg 1 + SO $end
$var reg 3 - w_ptr [2:0] $end
$var reg 3 . r_ptr [2:0] $end
$var reg 1 / w_en_reg $end
$var reg 1 0 r_en_reg $end
$var reg 17 1 data_in_reg [16:0] $end
$upscope $end

$upscope $end

$enddefinitions $end

#0
$dumpvars
0&
0'
0!
x+
x*
x)
0$
x0
0"
0#
x/
bxxxxxxxxxxxxxxxxx ,
b00000000000000000 %
bxxxxxxxxxxxxxxxxx 1
bxxxxxxxxxxxxxxxxx (
bxxx .
bxxx -
$end
#5
1!
b000 -
0)
1*
b000 .
b00000000000000000 (
#10
1"
0!
#15
1!
b00000000000000000 1
0/
00
#20
0!
#25
1!
#30
0!
#35
1!
#40
0!
#45
1!
#50
0!
#55
1!
#60
0!
#65
1!
#70
0!
#75
1!
#80
0!
#85
1!
#90
0!
#95
1!
1#
1/
#100
0!
#105
1!
b00000000000000001 %
b00000000000000001 1
b001 -
0*
#110
0!
#115
1!
b00000000000000010 %
b00000000000000010 1
b010 -
#120
0!
#125
1!
b00000000000000011 %
b00000000000000011 1
b011 -
#130
0!
#135
1!
b00000000000000100 %
b00000000000000100 1
b100 -
#140
0!
#145
1!
b00000000000000101 %
b00000000000000101 1
b101 -
#150
0!
#155
1!
b00000000000000110 %
b00000000000000110 1
b110 -
#160
0!
#165
1!
0#
0/
b111 -
1)
#170
0!
#175
1!
1'
b110 -
0)
b00000000000001101 1
0+
#180
0!
#185
1!
1&
10
b100 -
b00000000000011011 1
#190
0!
#195
1!
1/
b000 -
1*
b00000000000110111 1
#200
0!
#205
1!
b001 .
0*
1)
b00000000001101110 1
#210
0!
#215
1!
b011 .
0)
b00000000011011100 1
#220
0!
#225
1!
b111 .
b00000000110111000 1
#230
0!
#235
1!
b001 -
b00000001101110000 1
#240
0!
#245
1!
b011 -
b00000011011100000 1
#250
0!
#255
1!
b111 -
1*
b00000110111000000 1
#260
0!
#265
1!
b00001101110000001 1
#270
0!
#275
1!
b00011011100000011 1
#280
0!
#285
1!
b00110111000000111 1
#290
0!
#295
1!
b01101110000001111 1
#300
0!
#305
1!
b11011100000011111 1
#310
0!
#315
1!
b10111000000111111 1
#320
0!
#325
1!
b01110000001111111 1
#330
0!
#335
1!
b11100000011111111 1
#340
0!
#345
1!
b11000000111111111 1
#350
0!
#355
1!
b10000001111111111 1
#360
0!
#365
1!
0&
00
b00000011111111111 1
#370
0!
#375
1!
1&
10
0/
b00000111111111111 1
#380
0!
#385
1!
0&
00
1/
b110 .
0*
b00001111111111111 1
#390
0!
#395
1!
1&
10
0/
b101 .
b00011111111111111 1
#400
0!
#405
1!
0&
00
1/
b010 .
b00111111111111111 1
#410
0!
#415
1!
0/
b101 .
b110 -
b01111111111111111 1
#420
0!
#425
1!
1&
10
b010 .
b101 -
b11111111111111111 1
#430
0!
#435
1!
0'
b00000000000000110 1
00
b00000000000000010 (
b011 .
#440
0!
#445
1!
1'
0&
b110 .
1)
b010 -
0)
b00000000000001101 1
b00000000000000001 (
#450
0!
#455
1!
b0xxxxxxxxxxxxxxxx ,
b100 .
b101 -
b00000000000011010 1
b00000000000000000 (
1+
#460
0!
#465
1!
b10xxxxxxxxxxxxxxx ,
b000 .
b011 -
b00000000000110101 1
0+
#470
0!
#475
1!
b010xxxxxxxxxxxxxx ,
b110 -
b00000000001101010 1
#480
0!
#485
1!
b0010xxxxxxxxxxxxx ,
b100 -
b00000000011010101 1
#490
0!
#495
1!
b00010xxxxxxxxxxxx ,
b000 -
1*
b00000000110101011 1
#500
0!
#505
1!
b000010xxxxxxxxxxx ,
b00000001101010110 1
#510
0!
#515
1!
b0000010xxxxxxxxxx ,
b00000011010101100 1
#520
0!
#525
1!
b00000010xxxxxxxxx ,
b00000110101011000 1
#530
0!
#535
1!
b000000010xxxxxxxx ,
b00001101010110000 1
#540
0!
#545
1!
b0000000010xxxxxxx ,
b00011010101100000 1
#550
0!
#555
1!
b00000000010xxxxxx ,
b00110101011000000 1
#560
0!
#565
1!
b000000000010xxxxx ,
b01101010110000000 1
#570
0!
#575
1!
b0000000000010xxxx ,
b11010101100000000 1
#580
0!
#585
1!
b00000000000010xxx ,
b10101011000000000 1
#590
0!
#595
1!
b000000000000010xx ,
b01010110000000000 1
#600
0!
#605
1!
b0000000000000010x ,
b10101100000000000 1
#610
0!
#615
1!
b00000000000000010 ,
b01011000000000000 1
